module gitlab.com/socialspecters.io/specters

go 1.17

require (
	github.com/alecthomas/jsonschema v0.0.0-20191017121752-4bb6e3fae4f2
	github.com/golang-jwt/jwt v3.2.2+incompatible
	github.com/golang/mock v1.6.0
	github.com/grpc-ecosystem/go-grpc-middleware v1.3.0
	github.com/hsanjuan/ipfs-lite v1.1.21
	github.com/ipfs/go-log/v2 v2.5.0
	github.com/libp2p/go-libp2p-connmgr v0.2.4
	github.com/libp2p/go-libp2p-core v0.8.6
	github.com/multiformats/go-multiaddr v0.3.3
	github.com/namsral/flag v1.7.4-pre
	github.com/spf13/cobra v1.3.0
	github.com/spf13/viper v1.10.1
	github.com/stretchr/testify v1.7.0
	github.com/textileio/go-ds-mongo v0.1.5
	github.com/textileio/go-threads v1.1.3-0.20220111181552-a512e0a0c6fc
	golang.org/x/crypto v0.0.0-20210921155107-089bfa567519
	google.golang.org/grpc v1.44.0
	google.golang.org/protobuf v1.27.1
)

require (
	github.com/AndreasBriese/bbloom v0.0.0-20190825152654-46b345b51c96 // indirect
	github.com/Stebalien/go-bitfield v0.0.1 // indirect
	github.com/benbjohnson/clock v1.1.0 // indirect
	github.com/beorn7/perks v1.0.1 // indirect
	github.com/btcsuite/btcd v0.21.0-beta // indirect
	github.com/cenkalti/backoff v2.2.1+incompatible // indirect
	github.com/cespare/xxhash v1.1.0 // indirect
	github.com/cespare/xxhash/v2 v2.1.2 // indirect
	github.com/crackcomm/go-gitignore v0.0.0-20170627025303-887ab5e44cc3 // indirect
	github.com/cskr/pubsub v1.0.2 // indirect
	github.com/davecgh/go-spew v1.1.1 // indirect
	github.com/davidlazar/go-crypto v0.0.0-20200604182044-b73af7476f6c // indirect
	github.com/dgraph-io/badger v1.6.2 // indirect
	github.com/dgraph-io/ristretto v0.0.4-0.20210122082011-bb5d392ed82d // indirect
	github.com/dgtony/collections v0.1.6 // indirect
	github.com/dlclark/regexp2 v1.2.0 // indirect
	github.com/dop251/goja v0.0.0-20200721192441-a695b0cdd498 // indirect
	github.com/dustin/go-humanize v1.0.0 // indirect
	github.com/evanphx/json-patch v4.5.0+incompatible // indirect
	github.com/flynn/noise v1.0.0 // indirect
	github.com/fsnotify/fsnotify v1.5.1 // indirect
	github.com/go-sourcemap/sourcemap v2.1.3+incompatible // indirect
	github.com/go-stack/stack v1.8.0 // indirect
	github.com/gogo/googleapis v1.3.1 // indirect
	github.com/gogo/protobuf v1.3.2 // indirect
	github.com/gogo/status v1.1.0 // indirect
	github.com/golang/protobuf v1.5.2 // indirect
	github.com/golang/snappy v0.0.3 // indirect
	github.com/google/gopacket v1.1.19 // indirect
	github.com/google/uuid v1.2.0 // indirect
	github.com/gorilla/websocket v1.4.2 // indirect
	github.com/hashicorp/errwrap v1.0.0 // indirect
	github.com/hashicorp/go-multierror v1.1.1 // indirect
	github.com/hashicorp/golang-lru v0.5.5-0.20210104140557-80c98217689d // indirect
	github.com/hashicorp/hcl v1.0.0 // indirect
	github.com/huin/goupnp v1.0.0 // indirect
	github.com/inconshreveable/mousetrap v1.0.0 // indirect
	github.com/ipfs/bbloom v0.0.4 // indirect
	github.com/ipfs/go-bitswap v0.3.4 // indirect
	github.com/ipfs/go-block-format v0.0.3 // indirect
	github.com/ipfs/go-blockservice v0.1.4 // indirect
	github.com/ipfs/go-cid v0.0.7 // indirect
	github.com/ipfs/go-cidutil v0.0.2 // indirect
	github.com/ipfs/go-datastore v0.4.5 // indirect
	github.com/ipfs/go-ipfs-blockstore v1.0.4 // indirect
	github.com/ipfs/go-ipfs-chunker v0.0.5 // indirect
	github.com/ipfs/go-ipfs-config v0.14.0 // indirect
	github.com/ipfs/go-ipfs-delay v0.0.1 // indirect
	github.com/ipfs/go-ipfs-ds-help v1.0.0 // indirect
	github.com/ipfs/go-ipfs-exchange-interface v0.0.1 // indirect
	github.com/ipfs/go-ipfs-exchange-offline v0.0.1 // indirect
	github.com/ipfs/go-ipfs-files v0.0.8 // indirect
	github.com/ipfs/go-ipfs-posinfo v0.0.1 // indirect
	github.com/ipfs/go-ipfs-pq v0.0.2 // indirect
	github.com/ipfs/go-ipfs-provider v0.5.1 // indirect
	github.com/ipfs/go-ipfs-util v0.0.2 // indirect
	github.com/ipfs/go-ipld-cbor v0.0.5 // indirect
	github.com/ipfs/go-ipld-format v0.2.0 // indirect
	github.com/ipfs/go-ipns v0.1.0 // indirect
	github.com/ipfs/go-log v1.0.5 // indirect
	github.com/ipfs/go-merkledag v0.3.2 // indirect
	github.com/ipfs/go-metrics-interface v0.0.1 // indirect
	github.com/ipfs/go-peertaskqueue v0.2.0 // indirect
	github.com/ipfs/go-unixfs v0.2.6 // indirect
	github.com/ipfs/go-verifcid v0.0.1 // indirect
	github.com/ipfs/interface-go-ipfs-core v0.4.0 // indirect
	github.com/ipld/go-ipld-prime v0.9.0 // indirect
	github.com/jackpal/go-nat-pmp v1.0.2 // indirect
	github.com/jbenet/go-temp-err-catcher v0.1.0 // indirect
	github.com/jbenet/goprocess v0.1.4 // indirect
	github.com/klauspost/compress v1.13.6 // indirect
	github.com/klauspost/cpuid/v2 v2.0.4 // indirect
	github.com/koron/go-ssdp v0.0.0-20191105050749-2e1c40ed0b5d // indirect
	github.com/libp2p/go-addr-util v0.1.0 // indirect
	github.com/libp2p/go-buffer-pool v0.0.2 // indirect
	github.com/libp2p/go-cidranger v1.1.0 // indirect
	github.com/libp2p/go-conn-security-multistream v0.2.1 // indirect
	github.com/libp2p/go-eventbus v0.2.1 // indirect
	github.com/libp2p/go-flow-metrics v0.0.3 // indirect
	github.com/libp2p/go-libp2p v0.14.4 // indirect
	github.com/libp2p/go-libp2p-asn-util v0.0.0-20200825225859-85005c6cf052 // indirect
	github.com/libp2p/go-libp2p-autonat v0.4.2 // indirect
	github.com/libp2p/go-libp2p-blankhost v0.2.0 // indirect
	github.com/libp2p/go-libp2p-circuit v0.4.0 // indirect
	github.com/libp2p/go-libp2p-discovery v0.5.1 // indirect
	github.com/libp2p/go-libp2p-gostream v0.3.1 // indirect
	github.com/libp2p/go-libp2p-kad-dht v0.12.2 // indirect
	github.com/libp2p/go-libp2p-kbucket v0.4.7 // indirect
	github.com/libp2p/go-libp2p-loggables v0.1.0 // indirect
	github.com/libp2p/go-libp2p-mplex v0.4.1 // indirect
	github.com/libp2p/go-libp2p-nat v0.0.6 // indirect
	github.com/libp2p/go-libp2p-noise v0.2.0 // indirect
	github.com/libp2p/go-libp2p-peerstore v0.2.8 // indirect
	github.com/libp2p/go-libp2p-pnet v0.2.0 // indirect
	github.com/libp2p/go-libp2p-pubsub v0.5.4 // indirect
	github.com/libp2p/go-libp2p-record v0.1.3 // indirect
	github.com/libp2p/go-libp2p-routing-helpers v0.2.3 // indirect
	github.com/libp2p/go-libp2p-swarm v0.5.3 // indirect
	github.com/libp2p/go-libp2p-tls v0.1.3 // indirect
	github.com/libp2p/go-libp2p-transport-upgrader v0.4.6 // indirect
	github.com/libp2p/go-libp2p-yamux v0.5.4 // indirect
	github.com/libp2p/go-maddr-filter v0.1.0 // indirect
	github.com/libp2p/go-mplex v0.3.0 // indirect
	github.com/libp2p/go-msgio v0.0.6 // indirect
	github.com/libp2p/go-nat v0.0.5 // indirect
	github.com/libp2p/go-netroute v0.1.6 // indirect
	github.com/libp2p/go-openssl v0.0.7 // indirect
	github.com/libp2p/go-reuseport v0.0.2 // indirect
	github.com/libp2p/go-reuseport-transport v0.0.5 // indirect
	github.com/libp2p/go-sockaddr v0.1.1 // indirect
	github.com/libp2p/go-stream-muxer-multistream v0.3.0 // indirect
	github.com/libp2p/go-tcp-transport v0.2.7 // indirect
	github.com/libp2p/go-ws-transport v0.4.0 // indirect
	github.com/libp2p/go-yamux/v2 v2.2.0 // indirect
	github.com/magiconair/properties v1.8.5 // indirect
	github.com/marten-seemann/tcp v0.0.0-20210406111302-dfbc87cc63fd // indirect
	github.com/mattn/go-isatty v0.0.14 // indirect
	github.com/matttproud/golang_protobuf_extensions v1.0.1 // indirect
	github.com/miekg/dns v1.1.41 // indirect
	github.com/mikioh/tcpinfo v0.0.0-20190314235526-30a79bb1804b // indirect
	github.com/mikioh/tcpopt v0.0.0-20190314235656-172688c1accc // indirect
	github.com/minio/blake2b-simd v0.0.0-20160723061019-3f5f724cb5b1 // indirect
	github.com/minio/sha256-simd v1.0.0 // indirect
	github.com/mitchellh/go-homedir v1.1.0 // indirect
	github.com/mitchellh/mapstructure v1.4.3 // indirect
	github.com/mr-tron/base58 v1.2.0 // indirect
	github.com/multiformats/go-base32 v0.0.3 // indirect
	github.com/multiformats/go-base36 v0.1.0 // indirect
	github.com/multiformats/go-multiaddr-dns v0.3.1 // indirect
	github.com/multiformats/go-multiaddr-fmt v0.1.0 // indirect
	github.com/multiformats/go-multibase v0.0.3 // indirect
	github.com/multiformats/go-multicodec v0.2.0 // indirect
	github.com/multiformats/go-multihash v0.0.15 // indirect
	github.com/multiformats/go-multistream v0.2.2 // indirect
	github.com/multiformats/go-varint v0.0.6 // indirect
	github.com/oklog/ulid/v2 v2.0.2 // indirect
	github.com/opentracing/opentracing-go v1.2.0 // indirect
	github.com/pelletier/go-toml v1.9.4 // indirect
	github.com/phayes/freeport v0.0.0-20180830031419-95f893ade6f2 // indirect
	github.com/pkg/errors v0.9.1 // indirect
	github.com/pmezard/go-difflib v1.0.0 // indirect
	github.com/polydawn/refmt v0.0.0-20190809202753-05966cbd336a // indirect
	github.com/prometheus/client_golang v1.11.0 // indirect
	github.com/prometheus/client_model v0.2.0 // indirect
	github.com/prometheus/common v0.26.0 // indirect
	github.com/prometheus/procfs v0.6.0 // indirect
	github.com/spacemonkeygo/spacelog v0.0.0-20180420211403-2296661a0572 // indirect
	github.com/spaolacci/murmur3 v1.1.0 // indirect
	github.com/spf13/afero v1.6.0 // indirect
	github.com/spf13/cast v1.4.1 // indirect
	github.com/spf13/jwalterweatherman v1.1.0 // indirect
	github.com/spf13/pflag v1.0.5 // indirect
	github.com/subosito/gotenv v1.2.0 // indirect
	github.com/textileio/crypto v0.0.0-20210928200545-9b5a55171e1b // indirect
	github.com/textileio/go-datastore-extensions v1.0.1 // indirect
	github.com/textileio/go-ds-badger v0.2.7-0.20201204225019-4ee78c4a40e2 // indirect
	github.com/textileio/go-libp2p-pubsub-rpc v0.0.5 // indirect
	github.com/textileio/go-log/v2 v2.1.3-gke-1 // indirect
	github.com/tidwall/gjson v1.10.2 // indirect
	github.com/tidwall/match v1.1.1 // indirect
	github.com/tidwall/pretty v1.2.0 // indirect
	github.com/tidwall/sjson v1.2.3 // indirect
	github.com/whyrusleeping/base32 v0.0.0-20170828182744-c30ac30633cc // indirect
	github.com/whyrusleeping/cbor-gen v0.0.0-20210219115102-f37d292932f2 // indirect
	github.com/whyrusleeping/chunker v0.0.0-20181014151217-fe64bd25879f // indirect
	github.com/whyrusleeping/go-keyspace v0.0.0-20160322163242-5b898ac5add1 // indirect
	github.com/whyrusleeping/multiaddr-filter v0.0.0-20160516205228-e903e4adabd7 // indirect
	github.com/whyrusleeping/timecache v0.0.0-20160911033111-cfcb2f1abfee // indirect
	github.com/xdg-go/pbkdf2 v1.0.0 // indirect
	github.com/xdg-go/scram v1.0.2 // indirect
	github.com/xdg-go/stringprep v1.0.2 // indirect
	github.com/xeipuuv/gojsonpointer v0.0.0-20190905194746-02993c407bfb // indirect
	github.com/xeipuuv/gojsonreference v0.0.0-20180127040603-bd5ef7bd5415 // indirect
	github.com/xeipuuv/gojsonschema v1.2.0 // indirect
	github.com/youmark/pkcs8 v0.0.0-20181117223130-1be2e3e5546d // indirect
	go.mongodb.org/mongo-driver v1.8.3 // indirect
	go.opencensus.io v0.23.0 // indirect
	go.uber.org/atomic v1.7.0 // indirect
	go.uber.org/multierr v1.6.0 // indirect
	go.uber.org/zap v1.19.1 // indirect
	golang.org/x/net v0.0.0-20210813160813-60bc85c4be6d // indirect
	golang.org/x/sync v0.0.0-20210220032951-036812b2e83c // indirect
	golang.org/x/sys v0.0.0-20211210111614-af8b64212486 // indirect
	golang.org/x/term v0.0.0-20201126162022-7de9c90e9dd1 // indirect
	golang.org/x/text v0.3.7 // indirect
	golang.org/x/xerrors v0.0.0-20200804184101-5ec99f83aff1 // indirect
	google.golang.org/genproto v0.0.0-20211208223120-3a66f561d7aa // indirect
	gopkg.in/ini.v1 v1.66.2 // indirect
	gopkg.in/yaml.v2 v2.4.0 // indirect
	gopkg.in/yaml.v3 v3.0.0-20210107192922-496545a6307b // indirect
)
